*** Life<FredkinCell> 17x7 ***

Generation = 0, Population = 30.
-0-0---
-------
-----0-
00-----
-0-0---
----00-
-----0-
-0---0-
----0--
-----0-
0-000--
0-0-0--
-0-----
----0-0
----0--
-000--0
-----0-

Generation = 6, Population = 52.
-0---1-
---12-1
-0--1--
-13--1-
1--2330
00101-3
01-0---
--002-1
--01--4
-01-21-
-0----2
1--2---
--1-0--
--234-2
1-33---
-312--0
-------

Generation = 12, Population = 55.
-00-1-1
1------
--144--
--51-31
-4-44--
2-3---7
--2-310
--12-3-
---322-
----32-
---125-
---245-
--3---0
-44-41-
3-64---
-742-51
2-26-00

Generation = 18, Population = 63.
-2321-2
1405--2
4-2872-
32-38--
-55----
----21+
--22441
----74-
-3--346
-3--5-3
11--4-2
1-33-5-
-2-15--
-655-54
-8-4-2-
7-5466-
---8---

Generation = 24, Population = 46.
2256-5-
-----24
573-+--
-4-3+77
-6---5-
-----7+
----45-
59-----
-6-65--
----6-4
---3---
---35-5
3-62---
------8
-+--8--
-99-8--
254--0-

Generation = 30, Population = 62.
3---2--
19-----
-9-8+71
4-+5+9-
7-96---
37-03-+
-97-8-7
-+7--7-
6-5976-
--39+-6
--2--+-
2----88
--9-9--
2-99-69
5-----3
8+96-+-
--5+703

Generation = 36, Population = 59.
----3+-
2+--+68
8+6-+--
-7+-+--
8-----5
-8--6++
--84-6-
--94-95
-+-+-9-
-75-+4-
62---+8
-8-67+-
3--2+82
-+----+
--+-+--
--+-+-4
-96+-47

*** Life<FredkinCell> 5x10 ***

Generation = 0, Population = 20.
-00--00---
---00---0-
00------0-
0---00-000
------0000

Generation = 9, Population = 33.
0-70462--0
2122-0246-
--42---7--
-41-2510-4
3-2220354-

Generation = 18, Population = 26.
67+34-5--2
--5--2-5-3
-8---328-3
--2--8--45
-6-472-75-

Generation = 27, Population = 30.
+-+-787-6-
6-+-+47-+6
6888784-85
-9-----8-6
---8857-7-

Generation = 36, Population = 27.
++-+79-6+8
-5+--6----
8++-8+5--7
4--8-9----
-7-+--++95

Generation = 45, Population = 20.
----++++--
-7+---9++9
+--+---++-
7-6--+5-5-
----+-----

Generation = 54, Population = 24.
++++--+-+-
8--++7----
+-+-+--+++
+--+6-8--+
++---+----

Generation = 63, Population = 18.
--+----+-+
---+----++
-+++-+----
---+-+-+--
-+--++-+-+

Generation = 72, Population = 22.
--+-----+-
+---+--+--
+++---9--+
++8+-+-+--
+-+++-++--

Generation = 81, Population = 26.
-+++---+--
+--+-++++-
+-+-++--+-
--9+--++9-
-++-++--++

*** Life<FredkinCell> 15x10 ***

Generation = 0, Population = 24.
-0---0---0
-------0--
----0----0
-----00---
---0---0--
--0-----0-
--0---0---
--0--000--
-------0--
---0------
----0-----
----------
----------
0------0--
0---------

Generation = 4, Population = 57.
---13-----
--11---112
122---1101
-1---110-0
-2-1-0----
2--12-120-
0-1---2--0
2040-4----
-------2-2
1-3-----1-
--2---0-1-
--0--002--
1------1--
4-2-0--0-0
--2-------

Generation = 8, Population = 54.
--13-20--2
--22-0--3-
-64-0--12-
02---1-1--
---314----
----------
-3--124--1
22--0630--
21-------4
1--1-----0
--3-0---53
-----22---
---01--1--
--40-01---
--6----11-

Generation = 12, Population = 77.
1--3--2522
20422221-3
--5--42--3
4233--35--
--17-42010
4-5--1--31
255-----5-
-3-608543-
-32-17----
---13-1---
-33-----73
3-4-4464-3
-010------
-1---1-4--
3-+-2-03--

Generation = 16, Population = 33.
-----2-6-2
-1-----3--
4--3-4----
5-------43
-------2-0
------6-5-
3-7-------
435----6-1
-3-----5--
-2-------2
2---------
----------
----------
-3--3-76--
----4-2---

Generation = 20, Population = 67.
41-------2
---8-53563
88--15----
75---2--85
-5-+---4--
--8-7--363
5-+5145---
-55+3-783-
-4-4-9-7--
----5---2-
2-----3---
315----7-4
-1--5-63--
746271772-
--+-----6-

Generation = 24, Population = 58.
8248-4----
-2----3-7-
88-3--5-4-
-7-41-7--7
17--------
----------
-----5-363
-7-+3-7-52
----6+5+--
-6-4525--3
4--1-45-+-
5-------35
5------4-5
96+-------
-2----468-

Generation = 28, Population = 76.
+-5+84-933
--7-464---
+-84-7---6
8-545-8--9
3--+-565--
---594--76
---+3--78-
--8+--+-5-
7-77---+39
-7------43
-----462+-
-477978+-6
-355---547
-7-3-----4
-6+-7-66--

Generation = 32, Population = 42.
-5-+-4-+-4
-2-+------
-+--4-8---
--5665----
-9-+-5-7--
9-+---7-9-
--+-4-5-+-
-88-5++-7-
-7-9------
-----4-2--
----2-8---
----------
----------
-8-5----6-
--------9-

Generation = 36, Population = 59.
----+44+--
4-7+-656+-
+--68-83-9
--6-87-9-+
---+-----5
93-+-683+-
-++-6-6---
---+--+--2
---9------
7-9---8---
6---2-+-+-
-7+-98+-5-
-4-8----8-
---5+-----
------9-+-

Generation = 40, Population = 79.
-96++-6+3-
6-9+--57+-
++968--5++
-9---9-+++
---+2-77--
----------
-+++-769-6
-9+--+++94
-+-----+5+
-+---5-28-
+88-4---+-
--+++9----
-8-+9785--
--+6+-+99-
66+4--9-+-

Generation = 44, Population = 72.
+--++5-+3-
--+------7
-+++++8-+-
-+889++--+
5---4-883-
+4++-9+---
+-+---89-8
9+----+--5
---+++-+5+
--9--593--
++8---+5++
--+--+----
-----9+-+8
-+---5-+-6
-6+4------

Generation = 48, Population = 36.
-----6----
-5-+---8-8
---+---++-
+++-----+-
---+------
+---+-----
------+---
---+--++-5
-+-+---+-+
-+-----5-5
--------+-
----------
----------
-++8--++-8
--+---+---

Generation = 52, Population = 66.
-+-----+65
9---6--+--
---+++9+++
++++-+-+++
-+-+-+---8
+-+++---+-
--++---+--
9+-+-+--+7
-+-------+
8-+-+-+---
--+-6---+-
---+--++-8
-8++--+8-9
++-------9
+-+---+-+-

Generation = 56, Population = 57.
---+--8--6
+---8--+-9
+---++--++
-++--++--+
-------98+
----------
+-+--+----
++---++--9
-++--+5---
-+++--+--9
+--++--9+-
+7+-----9-
---+----+-
------++-+
+7-8+--+-5

Generation = 60, Population = 76.
+-+-+--+--
--++-+--+-
-+-+--++--
-++--+-+--
-++-6--++-
+9+++-+7--
++++++++--
+---+++++-
+-++-+7+--
+++----+-+
++--++----
--+-----++
+-++-++-++
-+---7---+
-9++---++9

*** Life<FredkinCell> 19x8 ***

Generation = 0, Population = 31.
---0-0--
00------
0-0----0
-000-0--
------0-
--00-00-
--0-----
--------
-0---0--
--0---0-
--0-----
--------
--------
----0-0-
--------
-0----0-
-------0
---000--
-----0--

Generation = 12, Population = 72.
354-2--2
--------
-3-44-3-
--34-23-
-625-1--
3-5--60-
--3--732
--2-35-0
-0----24
--7---2-
-52---5-
--4---13
--0--453
3-440-5-
-1--2--2
321-42-3
--02-101
352---65
333---1-

Generation = 24, Population = 84.
6-8-54-4
2-7-1463
+6---2--
7----36-
1+-56-4-
4-5-4-33
--433-86
3-5596-3
--6-7766
-5----44
---4---2
2----74-
75-32+--
-5---4-5
3+9-33-6
-72--59-
--6-4347
--57-+8-
7-87-540

Generation = 36, Population = 65.
78-466--
---6-8-5
-+-99-+-
+---949+
--+-+-6-
--+--+--
4597---8
5++-----
9----+--
+-+--8--
-+----9-
7++-----
--5---+7
--7996--
++-7----
6-66-699
--9---6-
----6++-
7-+---73

Generation = 48, Population = 76.
+++-9---
9--84+9-
+-++----
--------
8++-+-9+
--++-++-
7-996+-+
-++++7+-
+5++--+9
-+--9+-+
---8---7
-+--+-8+
+-7---+-
+----++-
+-+8+--+
++-++-++
98+--++-
-+--+---
8-----+-

Generation = 60, Population = 75.
-+-----+
+-++++-9
+--+--++
+++-+-+-
+----6+-
++-+--+-
---+--+-
-----++7
+---+++-
--+---+-
++++9++9
++-+++++
--+9+---
+++--+--
------7-
+++-+--+
----++--
+++--+++
+---7+-7

Generation = 72, Population = 73.
--+-++++
---+--+-
++++---+
++++--+-
+--++7++
-++-+---
+---+---
--------
--+++-+-
-++-++-+
+--+-+++
--------
--++-+-+
++--++-+
--+-+-9-
++++++++
-++-+++-
-++---+-
-+++----

Generation = 84, Population = 79.
+--++--+
++++-++-
-+-++++-
----+8-+
---+---+
+--++--+
------++
+-+----+
+-++---+
+++++++-
+-+++++-
-+--++--
+++-+-+-
+--++++-
---++--+
++-+-++-
-+----++
++--++-+
+--+++--

*** Life<FredkinCell> 18x17 ***

Generation = 0, Population = 46.
-------0---------
---------------0-
----0--00--------
-0-------0-------
-0------0--------
0--0--------0-0--
-----------------
---0--0---------0
-0------0-0------
--0--------------
--------0-0--0--0
----0------------
-0-00--0-0-------
--0------0-------
--0----00-------0
------------0000-
-0-0----0--0--0--
---------0-------

Generation = 3, Population = 159.
-0-011002-0--0---
01--0--00---0-0--
--100----11-0000-
--0000--00011-110
----10-2101----0-
--2-01---11----0-
-0--0-0-0-10--0-0
1--1-2-0-0001--01
-0----200--0-100-
-00--0---0-0-00--
0---2-12-1-22-2--
---010--0---00000
--0-002-0---01-0-
1--0-001-101-1-1-
101-01-33--10--01
0-2-------1131---
0111-1-2-1--111-0
-000-0-1010211-10

Generation = 6, Population = 157.
0-01--1-3---00---
3-10-00--01-1-1--
2--3-2--4-20101--
11---0-2--1-2---1
0-0--3-3-040-00-1
---111120-----1-0
-11111--0-210--01
2----2-----04--12
-30-1-----01011-1
--11000--1-12031-
--20--432--2212-2
-0011-2-1--1--31-
-----1321----4001
2-1-0-1-1-1212111
-1--1-----0-0-2-2
1-2---1-014--234-
1--104----3--12-3
0-11-3--04---1--0

Generation = 9, Population = 150.
---1--------0---0
4--30-0---13-0-0-
----22-3-1-0-11-0
--0-2-0-0-1-30-12
3302-4034--10-0--
0--24--312-12-430
02222--0--3--000-
3-2323---133-11--
----2--32--2---0-
-0--30-------0--1
-05--1--2-23--31-
--322--0-1023-41-
-3----3-2--0141-1
---1---1---2--1-2
513---2450021--1-
-0-1--1-1-5-4-4-2
--1--5-52363---2-
-1412-011-023--21

Generation = 12, Population = 154.
-2044-2-3-32-21-1
--33--01-244-----
4---33--6143--2--
-2-2-----22230-4-
4--3------62---2-
0-35-226-5---076-
32---301----1-10-
-1--342-22-4--2-4
------4-5-25-31--
-13--12--11-4--3-
2151---3---3--422
-24-3-30-23---51-
330-2---3--3254-2
2---42444-13--4--
6--3-1256-3--2-2-
-1-2112---64-256-
--4-1--62--3--2--
3-5---1415056-334

Generation = 15, Population = 149.
1--5-1-----303412
---4--0---55--3--
4---6--3-25---3-2
---5302----3-3---
7-23-84--1---2--1
-3655-563-3-21-72
3254-61-22-3-0-14
6---65---5--61--4
--344-4-6-35--11-
2-42-4211--2-156-
5--4-27--3-3-3---
-554616-3--2---23
--13-5---4-335-33
-1-------4----54-
7-----3-6-46--25-
2-2--23--1---2---
1374--27---3--26-
446---45-6-8933-7

Generation = 18, Population = 155.
2536-14--0-30-5-3
53-----------2---
-1-575-483--33--2
4---4--3----44-53
-32--8776-7423--4
---5-2----3-3----
4--446-1--4411---
743776-226--913-5
2--5-4--93--15-2-
--43-4--1-22---63
----43+----3----6
---5-17033-34-92-
--1-463-6-23---44
-2-1--5-67-3545--
8-75-34-6--7343-5
3133---2216---6-3
-687355--3-----97
--7-5-45----9445-

Generation = 21, Population = 148.
38-------14433-13
-4-7-----2573-3-2
6438----94-53--25
--265-3324-4-5-8-
76-4398+---434---
--76-2-7-7---3-8-
---55----3----317
8-4-------4-+1---
3-5--5-6+36-25-5-
4--4-5-34--3-----
-1--5-+-3-4---62-
167-747066--54+--
3--3--4---543----
-------69+-6676-5
938--65----76--66
-234--7--294--9-3
378+-55---7--2-9-
4--4-64---0--4-5-

Generation = 24, Population = 149.
--3-53-----566--4
----3-1---8-443--
---98-0-95---5-3-
----5----42-782--
8--5----819-472--
0--76----85--6---
5476881-46543-648
--5--7-2--7-+-525
36-56-5-+37-----5
-1---8----43---6-
--64-4---5-43---9
--8--47--76-55-33
4-1-6-537767-+748
-22553-7---9--7-8
-686---8---+7--99
-53---8-53+4-3--6
---+45---47-45---
5-9786-8--19-5--9

Generation = 27, Population = 169.
-837666341-6--534
----3--4-48-554--
-7-+9--5+-78----7
633-6--567--88-+-
-7-64+-++------45
1-9-73-9---259--5
5-87----595-44759
+-67+-4--789+1-56
-67--868+3------8
6-64493-8-4----6-
8-7--5+53854-47-+
379-8-718--56-+-4
4-1--75--+9-4+---
--3--688--3+68--8
---6-+---07+-6-+-
363--395--+4849--
38-+5-8+3-+-5-4--
-6--97-8--1---6--

Generation = 30, Population = 152.
--3-----5257-----
-55-4244-49-86504
7+5++-36+--+56---
9368-3----35-+--7
+-3----++1-65725-
-5+---9-6-63-+-+-
5--8+--4--545-76-
-7---+527+9-+2-57
--897-69--+555-8+
-27-4+-39--3--+73
---676-8----5----
--+-9---8---6---7
-7-3--8-----7+-5+
42-7-7-+-+-+9--8-
+--6------7-+--++
-9-534--65+5+59--
--9+66--4------+-
6--8---+-92-----+

Generation = 33, Population = 161.
6+-97-64--6+8--35
----42--0-9---517
8+5++--9+59+8---7
-67-63-----69+---
+9375+----+-6-2--
-6---39--+746+--5
5-9+++---+6-5-87-
--79++----+-+--8-
--9979----+6-5---
9--45--4+55----+-
837-8-+9----6----
57+---8---65-5+3-
-+--7786-+9-8+--+
--488--+---+++98-
+89--+-+71+-+-5-+
3-66-4+-7-+-+6+-8
3++-------+--94+8
--+---4+3-3--977+

Generation = 36, Population = 148.
9+-+-------++6-46
---+--6634--97828
-+8++85--5--9-748
+9---339--66+-2--
+-4-8---+---6-2--
----9--------+--6
----+-4--+9-649--
-7+--+6--++-+----
--+98-6-+3+9--5-+
+4758+-5--64---+3
-688-7+-487--5-6+
--+-+4----767--6-
-+357796-+-79++--
6-----++-----+-9-
+--6----+1++-----
3-97---7-5+----9-
4-+-9-8-5--8--4--
67++--7---6++++-+

Generation = 39, Population = 157.
---+-6-57-8-+-757
7--+7-664--++--39
-+--+--+-6-++----
+9-+-4--8-9-+--+-
++58--+++2+--9-85
4-----+--+-4-+9+7
65-++----+-6-5-9-
++++------+++37+-
----9-7++6-+---+-
---59--6--7--3---
+-----+-78----+-+
-9+-+78--+7-8-+7-
6+458++6-++8+-+-+
-2--88-+-+-+-++-9
-8-9-+-----+--5-+
3--854+7+--5-----
-+---79+55++8-5--
67+--+-+4+-+++--+

Generation = 42, Population = 143.
-----7-674-++7-8-
756-8-------+----
--8-+-----+--7-68
+-++----9-+6+-2-8
++---++-+5+-8--9-
5--8---+------9+7
--+---778---66--+
+++--+--9--+--7--
7+--+++-+7-+---++
+-9-++57-67-8-+-5
+--++-++-88---+-+
-+-9++---+-897+88
-+----+-----+-+--
8-5-8+-+--7++---9
--+---6++-+------
-++954-+-------99
4-+++8---6+-8+-+-
7+-+9---5-8+--+-+

Generation = 45, Population = 155.
++------8--+--+--
-5-+--8---+-+9-3-
-+-++-7-+6-+-7-99
+++-86---++--+---
+-68-------99+--5
---9+7-+8-9------
85+++-+89+---7-++
+--+++8--++++5---
8+----+++---975+-
-5+7++-7+-86----6
-78--9+--9-4---+-
---9++-49---+-+--
-+--8-+---+-++-6+
8-8++-+-++8++-+9-
-++-4+----+--78++
-+++-5+++7+5+9+9-
--+-+-++---------
7-+--+9+----+++++

Generation = 48, Population = 149.
++7+-7-----++---8
---++5-655-++9-6+
++8-+--+--++--+++
-++-8---+-----2-+
+-68+-+-+---9+-+6
78+-+--+----6--+7
85+-+----+-88+-++
--+---+-9++++88++
8-----++---+-8--+
+8--+-67+-9--3--7
+7--+-+------5-++
----+++---8++-++-
8+6----68--9-+-7-
8-9+--++--9-++-+-
--------+3+++---+
5+-+-----8--+---+
7+--+-+--9---+7--
-+++--+--+8++-+--

Generation = 51, Population = 174.
++--------8++-+9+
---++5-6---++++7-
++-+++---6-++---+
+-+-9-6--++-++5++
+-78---++8+-++-+-
8++--+-+--977+--+
8-+----9-++99---+
+-+++++6---++--+-
-+--+-+++-+-+-6++
-8--++78+8+7+----
-8++++++-998--++-
6-+-+-+-+++++--+8
-+7-8++----++--7+
+2++++++++-+++--+
++--5+8--4++--9++
5+-----++-----+--
--+++----++++--+-
-+--9++--+-++-++-

Generation = 54, Population = 156.
++-+-+9----+--+++
+6---5-7--+---+7-
---+-+9-+7---7+++
--+-+-7-++----6+-
++8--+-+-++--+---
9-+-++--9++--++-+
-----+-++-+--+--+
+-+++-+9++--+-9++
-+++-+-+--+-----+
-8--+-7-+++-+5++-
-9+--+-----9-7+-+
7++-+++7-----9--8
8-88-++---++--+--
+---++--++-+---++
++++6-8--4+-+7-+-
5+++---++--5--+-+
7+++---+---++-7+-
--++9--+-+-+++++-

Generation = 57, Population = 145.
++----+98-9+-+--+
---++--8-7--+-+--
+-+-+-9---+---+++
+-+--98-+-+8++---
--+----+-+-+--++8
+++-+++++--8-++++
-7+---+-++-++++++
--++--+++----++--
++--+++-++-+-----
----++7+-+-------
---+++-+8--98----
-+----+--+-++++--
9+9-++--+++-+----
+-+----++-----+--
-++-6--+-4--+-++-
-++-8-+-+9-6----+
8-+-+--+5++-+-+--
8+-+-+---++++---+

Generation = 60, Population = 166.
-------+-7----+++
+8-++79---+--++9+
+-++---++8++-8+-+
-+--++--++----8+-
++++++----++++--8
-+-+----+++-8++--
-8++-+-----+++++-
++-++++-+-++--+--
+++++--++--++---+
---8++-+---9+--+9
-+++-+++9+---++-+
---++-+-+-+++-+-+
-+++-++6-+++++-8-
+---+---+---+-+-+
-+--9-9+--+-++-+-
-+++-7--+++6+-++-
-++--9-+--+--+++-
8+++++-+---++-+-+

Generation = 63, Population = 163.
+-9+--+-+8++-++++
-96--7-+-9++---+-
-+--+-+++++++8-+-
---+-++--+-+++--+
--+++-+---+--+-+8
+-+-+-++++-9-++++
9-++----+-++---+-
++-+--+--++-++-+-
+-+-++-++++-++9++
--+---+----9-6+++
++++----+++--+-+-
--+++++++---+-+++
+--+-----++++++8+
-4+++-++-+-+--+--
---++-++-6-+--+++
9+-----++++6+--++
+--+-+++------+--
--+---+------+-+-

Generation = 66, Population = 157.
++9-+--+--+---++-
-9-+--++-+-++-+++
--+++--+++-++--+-
++---+-+--+-++-+-
-++--+++++-+-+++-
-----++++---+--++
--+++-+++-+-----+
-+++-++----++-+-+
+---+++-+-+++----
++++--+--+--+--++
-++-----++-+----+
-+--+--+--++++-+-
+-+++++-+++---+++
-5+++++++--++-+--
----++--+--+++-++
--+--+--+----+---
--+++--+8+-+++-++
---+-+-+6+++++--+

Generation = 69, Population = 157.
-++--+++++++-+++-
++-++9+-9-+++----
+--+---++----9++-
-++++--++++++-9-+
---+-++----+-++--
+-----+--+--+-+--
9---+-+--+-+-++-+
+-++--++-+++-+-++
+--+++++++-+++---
++-++--+-++++8--+
++++--+---++-+++-
8-+++-----++--++-
-+-++-+7+--+-+--+
+6-+-----++------
-+--+-+-+---+---+
++--+--++++8-+++-
--+-+-++-+-+-+--+
---+--++9---++--+

Generation = 72, Population = 159.
-++-++----++++++-
++-+----+++++++--
-+++++++--+--+-++
++--++-++++-+++++
-++-+--+-+--++-++
+-++--+++++++---+
-+-+++-----------
++--+-+++----+++-
++++--++-++-+----
++--++-+-+-++9---
+-+--+++----+--++
9+-+++---+---+++-
--+---+7+--+-+---
+7----+-++-++++-+
-++--++-+-++-----
--+---+-+++8--++-
-++-+-+--++++++-+
+----+------+++--

Generation = 75, Population = 144.
---+-++++---+++-+
--8+-++++--------
-++---+-+-+--+++-
++---++-----+-+++
++++-+-----+-++++
+--++--+--++-++++
------++++++-+--+
++----+-++--+---+
--+---+--++-----+
-----+---+-+-++-+
+++-----++-+-+-+-
-+-+-+-+++--++-++
--+----8-++-+--+-
--+--+-+++---+--+
-+++----+--+-+++-
++++-++-++----+++
---+--++--+--++--
++++---++-+++-++-

*** Life<FredkinCell> 6x9 ***

Generation = 0, Population = 27.
0-00000--
00-000--0
--000--00
0--00---0
00-------
-0-00--0-

Generation = 10, Population = 24.
4--6124--
0--3---11
-13-----5
----2----
33-0-13--
-126414--

Generation = 20, Population = 25.
7--9-5-40
-+-94----
-76------
8266-724+
6----138-
-4--4--6-

Generation = 30, Population = 21.
---+---55
-+--9----
-+-536+6+
-69--+6--
-8--33-+-
-------8-

Generation = 40, Population = 27.
+-+++++-+
++4++-7-9
8-+-----+
---8+----
9-4--36-8
8+------7

Generation = 50, Population = 24.
--+-++-++
-+-+-5---
+--+----+
-++---9+-
-+-8--8--
+++-+-+-+

Generation = 60, Population = 33.
-++-++---
-+8+-9++-
-+++-+--+
+-+-+++-+
++99+--+-
+-+--++++

Generation = 70, Population = 25.
----++-++
----++-+-
-++-+-++-
---++----
+-+-+++++
+--++---+

Generation = 80, Population = 33.
++++--++-
-+-----+-
+--++++++
+++++-+++
+-++-+---
-++-++++-

Generation = 90, Population = 22.
+--+-+-++
---+++-+-
+------+-
-++---+--
+-+--+---
-++-+++--

*** Life<FredkinCell> 7x15 ***

Generation = 0, Population = 29.
--0----------0-
---000--000----
---000---0-----
-0------00000-0
---0----0------
-0----00-00----
---0--0-0------

Generation = 13, Population = 56.
2-1---4-3---1-0
-21-332-372-25-
--1-266-451-1--
2-4-2-2-2-2-4-1
0-2-23---70-4-2
-4---65-75---4-
33--141-424--13

Generation = 26, Population = 0.
---------------
---------------
---------------
---------------
---------------
---------------
---------------

Generation = 39, Population = 0.
---------------
---------------
---------------
---------------
---------------
---------------
---------------

Generation = 52, Population = 0.
---------------
---------------
---------------
---------------
---------------
---------------
---------------

*** Life<FredkinCell> 5x14 ***

Generation = 0, Population = 22.
0----0-----0-0
-----00------0
-00---0--0----
----00-000-0--
--000-0-----0-

Generation = 5, Population = 23.
---302----0---
0--1--2----1-3
--3------1-1--
-2-1---1-0-1--
--210----2--12

Generation = 10, Population = 25.
-2--------01-6
-------2-2----
2---33---4--63
3--20-1--10---
-15-2-3-2---65

Generation = 15, Population = 29.
-----32-3-33-7
-1---445--14--
546-465-3---9-
-2---5-514---2
--------24-3--

Generation = 20, Population = 34.
--043-----5338
-6-615-618--0-
--7-57-26----+
-715-----7---2
389--7-4--45+-

Generation = 25, Population = 30.
--27---9--8-49
5-0--6-----72-
--+15-63-5-3--
---7-----7----
6-+6-754267-+-

Generation = 30, Population = 33.
-7297-5+4---4+
---7-7-9-+---7
-7+---7--8----
-7--373+38-6-7
7+---+-65--5--

Generation = 35, Population = 33.
+--++5-+-5+57-
--1--8----1-2-
--+------8-6--
994--95+-+2-58
8-+67--6---+-+

Generation = 40, Population = 37.
---++--+-6-6-+
-+4+2+6+4+----
8---9+---+--++
9+7--+--7+3---
--+6--++6++-++

Generation = 45, Population = 29.
-----7++-8--8+
-+---+6+4-4---
+++-+++-9---+-
-+---+-+-+-9-+
-------+--+-+-

Generation = 50, Population = 32.
------+--8---+
-+-+-+---+-+-+
--+-++-8+----+
-+7+6--+8+-+8-
++-+++++-+----

Generation = 55, Population = 38.
+--+--+--++8++
5+-+--7+6--+-+
--+4+-+9-+-8--
-++--+9+++--++
---+-+--+-+++-

Generation = 60, Population = 37.
++-+-9-+-+-+--
6+-+3+-+-+6-7-
-++---+--+----
+----+++++9++-
-++-+-++-+--++

Generation = 65, Population = 23.
---+++----+---
6--+--9----+-+
--+------+-+--
-+-+---+-+-+--
--+++----+--++

*** Life<FredkinCell> 7x8 ***

Generation = 0, Population = 29.
00-0--0-
0---0-0-
-000-000
--0-----
-0-0-00-
000--000
--000-00

Generation = 3, Population = 32.
--01-0--
---010--
031--3-1
123001-2
010---01
1----1-0
-0-03210

Generation = 6, Population = 32.
0--1-3--
4-1--12-
16-3--2-
4-310-23
32----34
230-1201
2---352-

Generation = 9, Population = 26.
3-22-4-2
-0--3--0
4-----34
-2-23-53
-----1-7
---1--02
-1043-3-

Generation = 12, Population = 31.
34-3-523
4-2042-0
-7162--7
4-5---5-
6--02248
-4--1--2
-2---7--

Generation = 15, Population = 31.
-7-4-633
-1317--0
---9--4+
7--5-26-
942133--
-5-426-5
-5--67--

Generation = 18, Population = 19.
-835--33
------2-
-------+
--6-62--
-----4-8
---5---5
8--66-72

Generation = 21, Population = 33.
--46--46
6---9-3-
-+-+--5+
+3759--5
+--1577-
--56-+06
880-78-3

Generation = 24, Population = 27.
-97----9
6---9-4-
-----65+
--8-9-8-
--4268-+
-5-63-1-
991-+9-6

Generation = 27, Population = 27.
--+-5-5+
7-7-9-51
-+3+--5-
+---+2-6
----697-
-8--4+--
+----++6

Generation = 30, Population = 27.
----8--+
-1-2+38-
-+6----+
+7+--2-7
--4--+--
5876----
++-9+++-

Generation = 33, Population = 28.
--+8--6+
9-7-+3+-
--7+----
+8-6--+8
-6---+--
-98-5+-7
++4-+--+

Generation = 36, Population = 24.
--+--8-+
+--3+--1
9+-+---+
----+-+-
+--69-++
5-9-6+2-
-+------

Generation = 39, Population = 31.
--+-+8-+
+3-3---2
-+7-48-+
--+----+
+--9++-+
6-9-7+2+
++4-+-+-

Generation = 42, Population = 22.
-+-+--7+
--7-+---
---+----
+9-+-3--
-9---+--
-+---+-+
++--++++

Generation = 45, Population = 28.
-+---+++
+---+-+-
-+7+6--+
+9-++--+
+---+-++
---9--4+
++-9+---

Generation = 48, Population = 25.
--+-+++-
+---+-+-
-+8-7+--
+-+-+---
+--+---+
7+----4+
++-9+---

*** Life<FredkinCell> 3x9 ***

Generation = 0, Population = 19.
-0-000-0-
-00000-00
000-000-0

Generation = 9, Population = 15.
--2112---
24-2---55
-20-0-204

Generation = 18, Population = 14.
-66--534-
-866-9-79
4------26

Generation = 27, Population = 13.
--+-----+
++---+-++
57-6-7-47

Generation = 36, Population = 16.
79+6-956+
++-+-+8+-
-9---9---

Generation = 45, Population = 15.
--+71+---
++-+---++
-+9-0-86+

*** Life<FredkinCell> 9x16 ***

Generation = 0, Population = 29.
-00----0-0-0----
-----0--00-0-0--
000--0----------
------------0---
--------0------0
----00-0--0-0---
----------0-----
---00--------0--
-----------0-00-

Generation = 10, Population = 84.
-243-3---41704-0
13-2--3-2-4-6114
---1--43-63---41
2--530--31-2--12
3-----14-0034---
--20--334--2-310
271----2--2345-0
3--332--50234-12
--121-334541307-

Generation = 20, Population = 76.
545----2-9---6--
5---2-522-+---4+
51--655----61354
32--4-13-613---3
4-3-543---34----
2-71-76-+--4--23
4---2-1-----869-
6-5458365-45-112
-46-3--77---818-

Generation = 30, Population = 67.
9--97---7+7-----
77-5--+6-6++9+--
75-------+985-9-
959--78--83---1-
--------6------0
36+-8-99-+----5-
--3--+---5-+9-+-
93--5+799-9-74--
9+998--88-8--29-

*** Life<FredkinCell> 10x5 ***

Generation = 0, Population = 33.
0-000
000--
--00-
0-0-0
0000-
-00-0
0-000
0-000
-000-
00--0

Generation = 3, Population = 21.
-20--
--1--
-0-10
--0--
1-13-
--3--
3-1--
---0-
01300
31---

Generation = 6, Population = 24.
4-102
----2
--2--
-01-2
-2-60
20-12
324-1
3----
-4-31
-----

Generation = 9, Population = 24.
5--13
---1-
11---
--2-3
-24-1
21-23
-35--
-3--1
1--6-
41-0-

Generation = 12, Population = 26.
-----
--52-
2-4--
3-50-
12481
-2-54
-6822
4--31
---72
-41--

Generation = 15, Population = 26.
-34-4
0-655
5-44-
-1-05
-----
---8-
4---3
5--62
3-382
474--

Generation = 18, Population = 28.
56517
-2-8-
63--2
4261-
--693
-2--5
56---
5--7-
4---3
-84-1

Generation = 21, Population = 28.
-9-2-
--9-5
-6-73
-5---
3--+4
-549-
5--34
6-4-4
--396
4+514

Generation = 24, Population = 24.
-+539
-4-96
8--+-
----7
-46-7
---+7
-7-35
-4---
-6---
-+624

Generation = 27, Population = 24.
-+--+
--++-
9----
-9+-+
3----
-65+8
6+-45
85---
----+
7-627

Generation = 30, Population = 27.
--66+
4---6
9-7+5
---2+
--9-8
--5+-
6-9--
-68+4
68-+-
7--38

Generation = 33, Population = 25.
-+9--
-6-+6
+8--6
--+--
-7-+-
-68-9
--965
---+7
696++
---3-

Generation = 36, Population = 21.
--+--
-----
+89--
--+--
--+--
8-8++
--9-8
----8
7-7++
8+-4+

Generation = 39, Population = 26.
7--6-
--+--
-8++9
-----
4++++
8--++
-+--9
879--
8-+--
-+94+

Generation = 42, Population = 19.
7--6+
86---
-9--+
9+-4-
-++--
-6---
-----
9+-++
-+---
8----

Generation = 45, Population = 26.
-+-9+
--+-7
++++-
++--+
5-+--
97--+
-+-8-
----+
9+--+
9--5+

Generation = 48, Population = 24.
+-+--
8-++-
-+-+-
++---
-+++-
--+-+
-+--+
--+++
++-+-
-+-8-

Generation = 51, Population = 24.
-+++-
-7-++
++---
-----
6--+-
99---
8-+9+
-+-++
+---+
++-+-

Generation = 54, Population = 28.
+--++
+8++-
-++-+
+-+6-
----+
-++--
---++
+---+
-++-+
+++++

Generation = 57, Population = 26.
+-+--
+++-+
-++--
+++9-
8+---
-+---
9-+--
+---+
--++-
+++++

Generation = 60, Population = 23.
-+---
+-+--
+-+++
-+---
-++--
-+--+
+----
++--+
++++-
--+++

*** Life<FredkinCell> 8x7 ***

Generation = 0, Population = 33.
0-0-000
---0000
0-00-00
-000---
000-0--
0---000
000-0-0
0---00-

Generation = 6, Population = 24.
0101-2-
0-1-424
-124--0
---1--0
--1----
---2220
2-4--0-
-------

Generation = 12, Population = 26.
---45--
-4---6-
33-73-2
---4743
-4-----
--33-6-
2--35--
-014242

Generation = 18, Population = 29.
--658--
-5--67-
-6--435
-62-+--
36--5--
36-746-
-4---33
5225-6-

*** Life<FredkinCell> 4x12 ***

Generation = 0, Population = 32.
-0--0000-00-
0-000-00-000
--000000-00-
-0-0-000-000

Generation = 11, Population = 23.
--0--57-----
---7-043--23
-1-7-5-25345
4--45-3--2-4

Generation = 22, Population = 18.
-5---9--7-2-
--3+7-78---6
--275+-4-6--
---5---7----

Generation = 33, Population = 24.
----9+++-479
4-5+85+-----
46-+-+-6+++-
6----49-----

Generation = 44, Population = 27.
++-+9---+8+-
7+9++9-+--7-
++-+-+-+++--
+9---6+8----

Generation = 55, Population = 26.
+--+-+---+++
++---+++++--
+---++--+-++
+-++-7-88-+-

*** Life<FredkinCell> 12x1 ***

Generation = 0, Population = 11.
0
0
-
0
0
0
0
0
0
0
0
0

Generation = 7, Population = 5.
5
-
2
-
2
-
1
-
-
-
-
1

*** Life<FredkinCell> 20x18 ***

Generation = 0, Population = 16.
------------------
0-----------------
----0-------------
------------------
--------0-0--0----
-00---------------
------------------
---0--------------
----0--0----------
0-----------------
------------------
------------------
------------------
------------------
-----------0------
--------------0---
------------------
------------------
--0---------------
------0-----0-----

*** Life<FredkinCell> 8x14 ***

Generation = 0, Population = 18.
---0-0-----0--
--0----0---0--
--0-0-00------
0---0-0-----0-
--------------
--------------
--------------
--0---00-0----

Generation = 12, Population = 66.
18----4--05405
3-4----314-244
-2-1-313---434
-14-6-45--5--3
-031--1-302--1
20--4--5--1420
025--1-432--1-
1502-64611-21-

*** Life<FredkinCell> 7x12 ***

Generation = 0, Population = 25.
------0---0-
---0----00--
0-----00-0-0
-----0--0-0-
0--0--0--0--
0---0-----00
-0---00-0---

Generation = 11, Population = 45.
4--2---424--
300--011--44
3--533-9-980
-24--25-2251
2-3--0--4---
60--24-2--56
32-5-9----2-

*** Life<FredkinCell> 4x6 ***

Generation = 0, Population = 21.
000-00
000000
-00000
000-00

Generation = 3, Population = 9.
11-2--
1-----
0-01--
--02--

*** Life<FredkinCell> 8x3 ***

Generation = 0, Population = 16.
0-0
00-
000
000
0-0
000
---
-0-

Generation = 12, Population = 13.
341
6--
-2-
62-
---
-40
234
--3

Generation = 24, Population = 13.
6-6
---
-6-
+--
476
06-
-7-
+3+

Generation = 36, Population = 9.
---
+-+
+-+
---
-+-
--0
-9-
+5-

Generation = 48, Population = 14.
+++
-7-
+++
+-+
-+-
-+-
+-+
+--

*** Life<FredkinCell> 8x15 ***

Generation = 0, Population = 21.
------0--0----0
---0----00-----
-0-------------
--------0-0----
---00----00--0-
--00------0--0-
0----------0---
0--------------

Generation = 9, Population = 71.
05---2---4-2-1-
--6-143-21-5102
1----20-01--024
40241--0-3-0225
2-1---1-214-211
---0--0-11-5251
5-43-0232--1-1-
-21502-1-222--1

Generation = 18, Population = 53.
-8-----64704442
--6---3--4--21-
442-62---3-----
----3-836-3-3--
5-23--3------43
--33--2--28-4--
7-6--1472--22--
-5-822-----525-

Generation = 27, Population = 58.
--44693-585-66-
-3+--678--3-42-
7557----3----6-
7-----8--641--9
----54-1-68-4--
964---4----8-64
---+--7--7-25-8
-7--754-06-55-4

Generation = 36, Population = 59.
-+----597+-6--+
--+997---74-55+
+--8-9-7-++63--
---98---7----7-
-+4667---+8-6--
--76-2-8-5+-++-
--8-5277-9----+
7--++-4+2---5+-

Generation = 45, Population = 66.
-+88-+7+8+-7-++
--+-+8---97-65-
++9-+++--+---++
+4++9-99-++767+
----8+-4--8----
+-8-5----7++++-
++-+-6----9--+-
-9+++----8+--+8

*** Life<FredkinCell> 6x6 ***

Generation = 0, Population = 21.
--00--
0-0-0-
00-000
---00-
0000-0
00-0-0

Generation = 7, Population = 11.
-0----
--3-51
-3----
----2-
---3-5
112---

Generation = 14, Population = 21.
---7--
--4-7-
-400-6
3-624-
01-406
-45442

Generation = 21, Population = 11.
-0----
--7-+7
-7----
----6-
---7-9
756---

Generation = 28, Population = 21.
---+--
--8-+-
-800-+
7-+28-
01-80+
-898+2

Generation = 35, Population = 11.
-0----
--+-++
-+----
----+-
---+-+
+9+---

Generation = 42, Population = 21.
---+--
--+-+-
-+00-+
+-+2+-
01-+0+
-++++2

Generation = 49, Population = 11.
-0----
--+-++
-+----
----+-
---+-+
+++---

Generation = 56, Population = 21.
---+--
--+-+-
-+00-+
+-+2+-
01-+0+
-++++2

Generation = 63, Population = 11.
-0----
--+-++
-+----
----+-
---+-+
+++---

Generation = 70, Population = 21.
---+--
--+-+-
-+00-+
+-+2+-
01-+0+
-++++2

Generation = 77, Population = 11.
-0----
--+-++
-+----
----+-
---+-+
+++---

Generation = 84, Population = 21.
---+--
--+-+-
-+00-+
+-+2+-
01-+0+
-++++2

Generation = 91, Population = 11.
-0----
--+-++
-+----
----+-
---+-+
+++---

*** Life<FredkinCell> 4x14 ***

Generation = 0, Population = 20.
--0-0----0----
---00-00---000
0----0-0----00
0--0--00-0----

Generation = 7, Population = 31.
-22--2-03-012-
--3530--23-51-
--2113--23201-
--3002-----1-1

Generation = 14, Population = 25.
--2-4-5----3--
214-65--455---
---41--5-7-0--
--37-5813--4-4

Generation = 21, Population = 32.
3---6-6--54369
42-++-7-877-62
744-2-0+2--2--
--59--9--3-67-

Generation = 28, Population = 33.
-----6-2768--+
8-7+-977+-8-64
-5-74----+-5--
5--+78+4963687

Generation = 35, Population = 34.
-937+9+-978--+
--+++-7---++-4
+88+572+-+37--
6+-+8-+-+-----

Generation = 42, Population = 23.
-+-8++---8----
----++9--+++--
---+-----+----
6+-+-++-+-4+++

*** Life<FredkinCell> 14x19 ***

Generation = 0, Population = 46.
0-----------00----0
---0--0-0--00-0----
-0-0-0-0----00----0
--------00---000---
--------0----0---0-
-------0--0--------
-------------------
----------------0--
----------0--00---0
0--0-------------00
0--------0---------
----0-0--0-------00
-------------------
-00----------0-----

Generation = 10, Population = 135.
121-33320-3-23-2153
-----3651-----73532
----3-23----32---2-
-2--33--12-3-8-4-5-
5-0-1--311---5--3--
1215--0111-32-22---
24-3-120-1-023120--
33----3-3-------15-
--2--23-33-21-3--12
--217-1---61-222---
-0-214---5---2-----
65-223-452--1-2--5-
0--1-1-0-34-02-2-1-
-2-6352-1-10--2-32-

Generation = 20, Population = 133.
8---65-422727952--6
6-2-+-9-1----2+47--
6-27--277-----33367
---7761-4--53---774
+65---3-----495----
----41--5--565-4---
4--52-8-2--45-69---
--1411-5-3---5-11--
7-543--3586--6--8-7
76-4--3--6-53---165
-4-718-247-5------3
6-545--478----564+-
----2------214---5-
-8594+62-4---3637--

Generation = 30, Population = 132.
-5--78--8------49+-
9-55+9--36+---+----
+-77-55-----+27-7+-
-+-9-+4--77--+-7+-8
+89----647--7+---++
--7--3---9-6-+6-18-
-+-74--------+--3--
674-237-776-67-75-3
+--5-687-+9457-2--+
+-68-9-85+++7--9-77
-----96--+---9915--
7---8+--98--8-+-4-6
76--36-3-4-7-8--5-8
--7+-+-38-----63-7-

Generation = 40, Population = 124.
+-++9----3+6++-6---
-6--++-+-7-++--8+9-
-7-+------4+-797--+
--4-+--+----7+----9
-----48-7---+-+--++
+-+--57--+37+-+6---
-++94--57+---+---3-
++-9--9-++-88--+---
+6979--7+-+-------+
+--+-+8--+-----+8+-
6-++7----+989+-3---
+-++++7---+895+7---
--55-7-6+-+------+-
---+8--6--6-79+-+-+

Generation = 50, Population = 131.
++++-+--+7-7---+---
+----++-9--++8--++-
--+++--+-+7++--8+--
+---+----++--+-++--
-++-+--+++---+---+-
+8--7-+7++59+--9+--
--+-78-++++---++9--
++--6-+++-+-++-+-+8
+-9--+++-+----+8--+
+-++-+--9+-++8--+--
---------++--++4-++
+++++++8-+-+--+--++
7-68--7+-+--7-7--++
7-+---+---+-----+--

Generation = 60, Population = 133.
--+++--+-+--++--+++
+-++++-+++++--+----
++--++-+--+-+---+++
+--+-+7--++-++-+-+-
++---7+++--++-----+
-++-9---+--+-+-9+-+
-+--9++---+-+--++-+
+---8----+++-+-----
+-+-+-+-++-++++++++
-++++--++-++--+-+--
8-+++++----+++--+++
+-++---+--+-+9-+-++
--9-----+----+++-++
--+++--+---+------+

Generation = 70, Population = 121.
-+----++----+-++-+-
-+-++---+--+++--+-+
++++-------+-++++-+
-++-----++-+--++++-
+-+---+-++-++++-+--
----++--++---+--+++
+-++-----+----++-8-
---+9-+-+-----+++-+
++--+---++-+-+--+--
---++++++-----+++--
-++++++--+--++--+--
+--+++--++-++-+----
+-+--+-+++--++--++-
+------+----++-9+-+

Generation = 80, Population = 133.
-+-----++++++--+-+-
-++---+++--+-+-++++
---+-+----++++++-+-
-+------+--+-++++-+
++--+---+-+--+--+--
-++++-+++-------++-
-++++-----++--+++++
+-+-++--++++-+--+-+
-+++--++-+--+++-++-
---+-++++++-++--+--
----++-+++-+---+-++
-+---+---+++-+----+
--++-+-----++-++++-
+-+-++-+-+--+++-+++

Generation = 90, Population = 138.
--+++-----+--+-----
-+-+++-+++++--+-+++
-+-+-++-----+++---+
-++++++--++--+++--+
++---+-+-++-+---+++
++-+---+-+----++--+
--+-++++---++--+-+-
--+-+---+++----+++-
++-+--+--++-+--+-++
--++++++-+-+--++-+-
-+-+-+++-+-+-++-++-
-++-++-+++-++-+--+-
++++-++-+++-++++--+
+++--+----++--+---+

*** Life<FredkinCell> 19x7 ***

Generation = 0, Population = 16.
-0--0--
0-0----
-------
-------
-------
--00-0-
---0---
---0--0
-------
--0-0--
-------
-------
---0---
-------
--0-0--
--0----
-------
-------
-------

*** Life<FredkinCell> 19x1 ***

Generation = 0, Population = 17.
0
0
-
0
0
0
0
0
0
0
-
0
0
0
0
0
0
0
0

Generation = 14, Population = 6.
-
4
-
-
-
-
3
-
-
-
2
-
-
-
2
-
-
2
2

Generation = 28, Population = 4.
8
-
-
6
-
-
-
-
-
-
-
-
-
-
4
4
-
-
-

Generation = 42, Population = 8.
-
8
+
-
-
6
9
-
-
-
-
-
-
7
-
-
+
8
8

Generation = 56, Population = 6.
-
-
+
-
9
-
-
8
-
-
8
+
-
-
-
-
-
-
+

*** Life<FredkinCell> 13x10 ***

Generation = 0, Population = 16.
-------0--
-----0----
--00------
----------
--------0-
-0--------
--0-------
----------
-0--------
---0-----0
-----0---0
--0-----0-
------0-0-

Generation = 4, Population = 45.
--2-----00
-----0---1
2-2---0---
----------
-1--1--10-
-1-2-----0
2-11-10--0
--1-----0-
-1---21---
-1---3----
-21--03104
0-1-0-3---
-00-03--23

Generation = 8, Population = 37.
-02--2----
---2---1-5
---221--1-
--1-----1-
0-321-0-2-
---------2
----0-211-
--2-----1-
-------1--
-1-0-4----
-31----2--
1---------
--0-0-0-4-

Generation = 12, Population = 48.
--6------1
-----0-3-6
4-4--21-32
3-2-0-3---
-23--10---
-4-------4
41---2-112
--3-3-3---
3--------1
-----4-2--
1352-354-8
3---2---2-
-4--0-2---

Generation = 16, Population = 35.
-3---52545
---5------
--8---2--3
--3-----4-
-----22--0
-5-----3-8
-32-------
----------
-------2--
---1-----5
---4-3-438
------5-3-
3--0--265-

Generation = 20, Population = 49.
---117-74-
-4-6-----6
5-------65
4---0-4-5-
--5---628-
-6-6---3--
6336---52-
--5---4---
4----4-42-
-4---+-7-9
3-7-2465--
--1-3-7---
-----7-7--

Generation = 24, Population = 49.
-6+21-3--7
-4-----6-8
74--4--36-
6-5---5---
--7---6-+2
-8-------9
+5-83-----
------5-4-
-7-4-66---
-5--------
5-8-38+---
--3-4-9-4-
-7302-5-7-

Generation = 28, Population = 46.
2---3--958
-4-+-----+
-6-4-32---
7---2---6-
5-----86+4
-9-------+
+---5-8---
3-6-------
-94667-6--
-----+---9
63+-5----+
------+---
5--1-867--

*** Life<FredkinCell> 19x19 ***

Generation = 0, Population = 47.
0------0----0--0---
-----0---------00--
----0--------------
----------0--------
0--------0-0------0
-0-----------0----0
-------0-00---0-0--
-----0-------------
---------00--------
------------0-----0
--0---------00-----
-----0------00-----
-------------------
------------0--0---
--0---------0------
-------------00----
-----00------0-----
------0-------0-00-
-------------0---0-

Generation = 6, Population = 176.
00-32302-2--13-32-0
---1-11--12---21-21
---00021--3-2-0-01-
-0-000-11--0001--01
--0--1---1301-----3
-0-1--10-2-1---4-26
01-015-1-32210----1
---------00-4010-0-
--0--0-1-4-3-4-0-13
---0--0-3030-4-32-2
0-0--02--002---10-0
-0-----0--1-0030211
---01--1--2-0-101--
-0--0-0---1--3-10--
-0---1--20-----1--1
--00------01-140-2-
---112---0-12--213-
0----0--1110--006--
01-1-43-10-1001----

Generation = 12, Population = 153.
-134--4--421374-613
---103-3-3----43-43
013--1---3---3272--
3-------2-----2--2-
------0-2-4----0---
-3--1--1334-2-3----
32-02----63--33-13-
--0-01----1-5----20
-3---1---6-52-1---5
1-1-21-2--62--45-13
-----43--3---2--1--
00---2--4--------1-
--0-123---3-----2-1
-2113-----2---2-21-
-4-233---242--3-1-1
-11-00---31-0----43
----42--0-63642-2--
41--11-03-31-2--8--
--2--5-1210-0-----0

Generation = 18, Population = 188.
---43764--21577----
3-1-0--4-5437---445
---23-3-3-5-4--9364
61-23------3-1----7
-217530-2-63---016-
2-355-24477-6-47-6-
---3-6--1-7--54----
--13--3--45-6-31---
-4-1-163---6--2-1-7
-3-3--4-40+3-5-9254
--1436-13----3--1--
143--4----63-25-4--
212-1-44-2--5-3---3
--3442-2--2-----6--
36---3-44-43--542-7
4----4-2---144--3--
1--1643-17---78-36-
65--32---4-2-6-8+13
34-64+424-12211303-

Generation = 24, Population = 153.
15--6-64----9-8--7-
-14-2-+8-76----6-86
22-26----5--8-4-5-8
----57-------1-----
-6---41-6576--3-3--
-6---46-7-+---5-+--
-42-885--88--98--58
23----5-1-------0--
38--4----84-4-41-49
4---5-5---+-787+274
3-253-8-63-5-6---3-
-6--17----7--2---63
4-64-4----6--97-4--
----8--535---5-48--
5-----3-6---5-9----
-2---64--6----7-3--
-64----53-9---+-984
862-4-----6-5+19+3-
5-376-4-6--6-------

*** Life<FredkinCell> 12x18 ***

Generation = 0, Population = 28.
------------------
------------0-00--
-0-0--0-----0-----
---00-------------
------------------
--0-----0--0---0--
----0-----0-------
-00--0------------
------------0-0-00
----0-------------
------0--------0-0
-------------0-0--

Generation = 4, Population = 70.
-0-2--0-----3-----
--1-------2-2-2-32
-20-21-12-------1-
111--1-02---------
------------2-1-01
2-----21---1--1--2
00-0--2-3---0-01-0
1--1101--1---0-0--
--------1-0-00-1--
1-1--------0-2----
--0-3-1----0-3----
-00-21---0-0------

Generation = 8, Population = 84.
----1-----3-5-1-30
--5---011--1-0233-
0--2410--1-0--1050
--1-3------341-1--
-1-3--3-----2-----
6--20--3--1-3-2-22
------2-----2--2-4
-1---0---21--2----
----4-4-21-0-----1
-0---2--------02--
30-05-11-112351---
--0135-10--4-0----

Generation = 12, Population = 111.
-0--231--343-0--32
-------1304344--57
24---30-43401-20-4
-3---511--14-3-22-
-32--241-2-24-4---
82-344--3-2-5-304-
-52--0-14--36-----
---3-2152---1321-0
104451404-0-------
3-5-----33--121-1-
------33--1-----2-
-3-34-0-4125012--3

Generation = 16, Population = 67.
------3-----7-315-
22----1-7----4-6--
--3-5-----62-03---
--2-----3-1--5--40
------6--------3-3
-----64--3--------
-5-71-5-------1--6
-37--6---2---44--1
-066--6-8-0-------
--9-----4-55---45-
-3-4-1--2-----4---
-3-568-2----1-42--

Generation = 20, Population = 104.
----4-7-2-6-8155--
6-------7-5566-+--
-5-45--2667-3-7-7-
374-76---------45-
-6-6----3--4436-47
+----86--5-2----7-
4--85--2--15---3--
857538455---465-2-
426-6463--2-3-22-4
65-5--6--6-74---62
------46655-5----0
44-5---35--7-253--

Generation = 24, Population = 99.
3-3---73--7-837-65
--7--1-2--75-65---
-6--5---8-7-4-----
57-0---2-8-5-95--2
3-5-4--2-35-------
---769845---5----2
485-----7------56-
--8-3-5-9----65-26
-2--66--+2-45--4--
---73385-+8-64288-
8-4--4---97---6-52
-8-77--55-771675-3

Generation = 28, Population = 106.
-0564--3---+-775-7
668-6-639---77-+--
8---74-6+-8--4-3++
-9-0--6-6955-+7-8-
58-7--+4-39----67+
+5----86--3--0----
----6-9-93-7+-4---
+-+---6---6-68--38
--6-------5863-858
7-+8---7--998--+--
9-6-6---8---8---74
683-8-777----7+707

Generation = 32, Population = 78.
----6-----+-------
-88474+-95-----++-
9------8-7--6-8-++
6+--9----+5-+-+6--
------+--------7-+
-----+--76---15--5
9---6-----5-----7-
--++---79--3786---
-3-+--9-+-9964389+
8--+------9-------
9--------9-4-98375
-8---9-886-8-----7

Generation = 36, Population = 108.
-------489--+--6+-
-+-4---4+7+6--6+--
+-9699--+-+88--4+-
6+-3+-898-7-+---83
-+6+7-+-7-+-5-+-+-
+-5---9-+8--8---+7
9-6-7-+4+--+-6697-
---+-++8-5----6-3-
-57-87--+3-+-67+-+
-6+-6-8----+-7----
--7--8-+----++9577
6-4++---+67--++---

Generation = 40, Population = 103.
60-79-+-9--+-886-8
8-8-+--4---8-9--+-
+8--+-4-----+4-6-+
7+-------+79-+-8+-
-----------556--++
+-59++-9-+---48---
+---7-+--55+-8+98+
---+-++----5--6--+
-67+---5---+--9-+-
-7++83-97+--973++-
-7-++8----+7-+-5-+
-8-++---+-9+1---28

Generation = 44, Population = 118.
----96+-++--+9-7+-
--9-+7+5+---+-9+-+
+--6++--+--+-8-8--
-+75+9-+-+--++-8+5
7-9-8-+--4--7--++-
+-7-+-99-+5-+685-8
---++--5+75---+-+-
+7++5---+---+--4-+
76-+-7+---+--8-+-+
+8++95+-7+-++-7-+6
-8-+----++-7-+--7-
8-4--+-++7-+3-++48

Generation = 48, Population = 123.
83-8+-+-+++-+---+-
9++5+8+-+-+-+--+++
+++8-+4++-++-++---
7+9-+-+++--------6
++-+-7+-+6-5-+--+-
+9--++-+---3--+---
-+-+--+5+96+-9++--
+-++7++8+---+-655+
9-8--7-6-6+++9+-+-
----+6--9+++-9--+-
-------+-++8--+67+
8+6+---++-++--++69

Generation = 52, Population = 113.
83+---+--+---+--+-
--+6-++-+8--+9--+-
---8++-+-----+--++
8++-+--+--8+-++-+7
-+9+88+8+-+6--++++
-+--+++++-6-+7---9
+---+6--+---+-+-++
-8--8--8-8+6-+8-6+
--+-9-+8-6+-+-++++
+8++--+9--+--+8---
-+---8-++-+-+++---
-+---+++-+-+6--++-

Generation = 56, Population = 125.
+-+-+---++-++-+9++
+--6-++-+9---+--+-
+-+9++7+-9-+--+++-
--+6-+--+---+-----
++++-9-9+8+-7--++-
-+9++-++++-4-9-6-+
+-+++---++--++++++
-9++++-++--8-+-9+-
-8--+-+9+-+++---+-
++-+-7-++-+--++++-
++-+-+5++--++++---
+---+-+++-++6+-++-

Generation = 60, Population = 104.
-5+-+8-4+---+-+--+
+-+-+-----++-+-+--
-+--++9-++-++--+++
9-++-++--+-+++-9--
-+-+--+-+-+--+-+--
--+++--++---+-+6--
-+--+7+8+-7+++--+-
+-+----++-+9-+----
----+-+-+7-++-+-+-
++---9++-+--+-+--+
-+9++-7+++--+-----
--8++-++-+-+---+--

Generation = 64, Population = 91.
------+--------9-+
+-+9+----++-++-+--
+---+-9+-+---++-+-
-++-++++-------9+-
----+-----+-9-+-++
-+++-+---+-5-++6+-
+---+-+---9---+-+-
--++++---9-+-+9+-+
+++++++++-+-------
---++-+-----+-+++-
-+--++++-+--+-----
-+-+-----+-+9-++--

Generation = 68, Population = 105.
+-+---+8-+-++--+--
+++----7-++-++----
---+-+--++++++++--
----+-+-+-+++++++-
-++++++++---+++--+
--+------+-7+-+8--
-+--+8+-+----+----
-++++--++9+-+-+-+-
---+++-++7-+----++
+----+-+---+-+--++
-+++-+-+---++++---
-+9--++-+++-9--+--

Generation = 72, Population = 108.
+7++-+--++-+-+--+-
--+9+--++++----+++
+-+---++-++---+-+-
++-+--+-+-+++--++-
+------++--7-+----
+++---++++--++-+--
++--+9-+-+--+--+-+
--++-+-+-++-----+-
+-+---++-7-++++-++
--+++++++-+-+++-++
+-+-++-+--+-+-++8+
-+-+-+----------+-

Generation = 76, Population = 111.
+-------++++--++-+
++---++++-+-++++--
+-+--+-++-----++-+
-+++--++++-+--++++
-++--++-++-9--++--
++-+-+--+-+---+++-
+-++-++-----+---+-
-+-+--+++++--++++-
---++++--+--++---+
++--+++-++-++-+-++
---++-------++-+9+
----+++++----++-++

Generation = 80, Population = 101.
+7+--+---++-+-+---
-----+-++----++---
++---+--+--+-++-+-
+-+-+--++++--+++-+
--++-+-++++---+--+
--+-+++------+++--
-+++-++--++--++-+-
-----+++---+--+++-
+-----++++++--+-++
-+-++-+--++--+-+-+
--+-++++-+-++----+
-++--+-++-+-+---+-

Generation = 84, Population = 109.
-7-++--8+--+--+--+
-+++--+++-+++--+-+
+-++-+++--+-++-+-+
--++--+++++++---+-
+-+++-+-+++---++++
--++++-+-+++--++-+
-+--+-+-++--------
+-++++-+-----++---
--+---+-++++----++
+-+-+----+-+++--+-
--+-+++--+--+++--+
++-----++-+--+--++

Generation = 88, Population = 108.
+8-+---9-+++--+-+-
+-++--+--++--+--++
++--+-+-++++-+-+++
-------++-++---+--
-++++++-++++---+-+
+---++++-----++++-
-+++---+++--++++--
+---+--++++-++----
---+-+++++-----+-+
++-+--+++--++-+-++
------+-+---+++++-
-++---++----++-+-+

*** Life<FredkinCell> 3x12 ***

Generation = 0, Population = 27.
000000--000-
-000-00-0--0
00000000000-

Generation = 5, Population = 20.
133111-4--31
--211-11-22-
1----1-1-1--

Generation = 10, Population = 18.
-3-6--2-2-63
--33---4--21
1523--22--3-

Generation = 15, Population = 21.
-6787-3833-3
76-63-352---
-6---4--44-3

Generation = 20, Population = 14.
---+84-9----
+-37--3--6--
37----35---5

Generation = 25, Population = 18.
-8---6---796
+9-7-6-8-6-8
---75-38-85-

Generation = 30, Population = 21.
--9++87+98+7
++-+6---5-69
----67--88--

Generation = 35, Population = 14.
--+----++-+-
----797-877-
---97--+--6-

Generation = 40, Population = 12.
6--+--9-+-+-
+-8----9-9--
7--------+8-

Generation = 45, Population = 20.
9-+++--++---
----8++---9+
9+8+-9-+-+++

Generation = 50, Population = 24.
9--+++-+-++-
--9+9+-+-+9+
++--8+9+9+-+

Generation = 55, Population = 22.
++-+-+--+--+
+++-9+-+-+-+
--++9+9+--++

Generation = 60, Population = 18.
-++----++---
--+++++--+-+
+++---9-+++-

Generation = 65, Population = 17.
+-++-+-++--+
+++-------++
+----++-+--+

Generation = 70, Population = 18.
-+++-----+--
---+++++-+--
-+--+++++-++

Generation = 75, Population = 17.
---+--+--+--
+++-++-++-++
++-+-+-+----
